\relax 
\select@language{english}
\@writefile{toc}{\select@language{english}}
\@writefile{lof}{\select@language{english}}
\@writefile{lot}{\select@language{english}}
\@input{rng/rng.aux}
\@input{search/search.aux}
\bibstyle{unsrt}
\bibdata{calc}
