\relax 
\@writefile{toc}{\contentsline {chapter}{\numberline {D}GNU Lesser General Public License}{23}}
\@writefile{lof}{\addvspace {10\p@ }}
\@writefile{lot}{\addvspace {10\p@ }}
\@setckpt{license/lgpl-3.0}{
\setcounter{page}{26}
\setcounter{equation}{0}
\setcounter{enumi}{6}
\setcounter{enumii}{2}
\setcounter{enumiii}{1}
\setcounter{enumiv}{0}
\setcounter{footnote}{0}
\setcounter{mpfootnote}{0}
\setcounter{part}{0}
\setcounter{chapter}{4}
\setcounter{section}{0}
\setcounter{subsection}{0}
\setcounter{subsubsection}{0}
\setcounter{paragraph}{0}
\setcounter{subparagraph}{0}
\setcounter{figure}{0}
\setcounter{table}{0}
\setcounter{parentequation}{0}
\setcounter{ContinuedFloat}{0}
}
