\relax 
\@writefile{toc}{\contentsline {chapter}{\numberline {3}Fortran}{3}}
\@writefile{lof}{\addvspace {10\p@ }}
\@writefile{lot}{\addvspace {10\p@ }}
\@writefile{toc}{\contentsline {section}{\numberline {3.1}Historical development}{3}}
\@writefile{toc}{\contentsline {section}{\numberline {3.2}Modern Fortran}{3}}
\@writefile{toc}{\contentsline {section}{\numberline {3.3}Fortran vs. C/C++}{3}}
\@writefile{toc}{\contentsline {section}{\numberline {3.4}Mixed language programming}{3}}
\@setckpt{fortran/fortran}{
\setcounter{page}{4}
\setcounter{equation}{0}
\setcounter{enumi}{0}
\setcounter{enumii}{0}
\setcounter{enumiii}{0}
\setcounter{enumiv}{0}
\setcounter{footnote}{0}
\setcounter{mpfootnote}{0}
\setcounter{part}{0}
\setcounter{chapter}{3}
\setcounter{section}{4}
\setcounter{subsection}{0}
\setcounter{subsubsection}{0}
\setcounter{paragraph}{0}
\setcounter{subparagraph}{0}
\setcounter{figure}{0}
\setcounter{table}{0}
\setcounter{parentequation}{0}
\setcounter{ContinuedFloat}{0}
}
