\select@language {english}
\contentsline {chapter}{Preface}{ii}
\contentsline {chapter}{\numberline {1}Introduction}{1}
\contentsline {chapter}{\numberline {2}High-performance computing}{2}
\contentsline {chapter}{\numberline {3}Fortran}{3}
\contentsline {section}{\numberline {3.1}Historical development}{3}
\contentsline {section}{\numberline {3.2}Modern Fortran}{3}
\contentsline {section}{\numberline {3.3}Fortran vs. C/C++}{3}
\contentsline {section}{\numberline {3.4}Mixed language programming}{3}
\contentsline {chapter}{\numberline {4}Using the library}{4}
