\relax 
\select@language{english}
\@writefile{toc}{\select@language{english}}
\@writefile{lof}{\select@language{english}}
\@writefile{lot}{\select@language{english}}
\@input{preface/preface.aux}
\@input{intro/intro.aux}
\@input{hpc/hpc.aux}
\@input{fortran/fortran.aux}
\@input{using/using.aux}
\bibstyle{unsrt}
\bibdata{../bib/calc}
