#FIG 3.2  Produced by xfig version 3.2.5b
Landscape
Center
Metric
A4      
100.00
Single
-2
1200 2
2 3 0 1 0 7 50 -1 -1 0.000 0 0 -1 0 0 5
	 720 990 2070 990 2430 270 1080 270 720 990
2 1 0 1 0 7 50 -1 -1 0.000 0 0 -1 1 0 2
	1 1 1.00 60.00 120.00
	 495 1935 1080 1305
4 0 0 50 -1 0 12 0.0000 6 210 1140 540 1170 $\\vect{r}_2$\001
4 0 0 50 -1 0 12 0.0000 6 210 960 1035 945 $\\vect{a}$\001
4 0 0 50 -1 0 12 0.0000 6 210 960 630 630 $\\vect{b}$\001
4 0 0 50 -1 0 12 0.0000 6 210 1140 360 2115 $\\vect{r}_1$\001
4 0 0 50 -1 0 12 0.0000 6 210 1050 1021 1625 $\\uvect{s}$\001
